{
  "juiacc": {
    "addClass": "juiacc-default",
    "removeClass": "juiacc-nix",
    "opts": {
	  "collapsible": true,
	  "active": -1
    },
    "nix": "nix"
  },
  "head": {
    "class": "",
    "opts": "",
    "": ""
  },
  "content": {
    "class": "jui-margin-up-small",
    "opts": "",
    "": ""
  },
  "top": {
    "class": "",
    "opts": "",
    "": ""
  },
  "right": {
    "class": "",
    "opts": "",
    "": ""
  },
  "bottom": {
    "class": "",
    "opts": "",
    "": ""
  },
  "left": {
    "class": "",
    "opts": "",
    "": ""
  },
  "class.X": "ui-helper-hidden-accessible",
  "fertig": "nix"
}