{
  "keysallowed": {
    "widget": ["juiacc", "head", "content", "resizer"],
    "section": ["head", "content"]
  },

  "juiacc": {
    "uid":"int",
    "scheme":["default", "sidebar", "compact", "test"],
    "addClass":"*",
    "removeClass":"*",
    "addFlags":["resizable", "fillspace", "nostorestate"],
    "removeFlags":"*",
    "opts":{
	  "disabled":"bool",
	  "active":"int",
	  "animated":"bool",
	  "autoHeight":"bool",
	  "clearStyle":"bool",
	  "collapsible":"bool",
	  "fillSpace":"*"
	},
    "attr":{
	  "test1":"*",
	  "test2":"*",
	  "test3":"*"
	},
    "style":{
	  "height":"*",
	  "width":"*",
	  "margin":"*",
	  "border":"*",
	  "padding":"*",
	  "background":"*",
	  "position":["absolute", "fixed", "relative", "static"],
	  "top":"*",
	  "right":"*",
	  "bottom":"*",
	  "left":"*",
	  "overflow":["visible", "hidden", "scroll", "auto"],
	  "float": ["left", "right", "none"],
	  "clear": ["left", "right", "both", "none"]
	}
  },
  
  "resizer": {
    "addFlags":["nostorestate"],
    "opts":{
      "handles":    ["s", "e", "s,e", "s,e,se", "none"],
      "autoHide":   "bool",
      "disabled":   "bool",
      "height":     "int",
      "minHeight":  "int",
      "maxHeight":  "bool"
    }
  },

  "head": {
    "caption":"*",
    "title":"*",
    "addClass":"*",
    "removeClass":"*",
    "addFlags":"*",
    "removeFlags":"*",
   "attr":{
	  "test1":"*",
	  "test2":"*",
	  "test3":"*"
	},
    "style":{
	  "height":"*",
	  "width":"*",
	  "margin":"*",
	  "border":"*",
	  "padding":"*",
	  "background":"*",
	  "position":["absolute", "fixed", "relative", "static"],
	  "top":"*",
	  "right":"*",
	  "bottom":"*",
	  "left":"*",
	  "overflow":["visible", "hidden", "scroll", "auto"],
	  "float": ["left", "right", "none"],
	  "clear": ["left", "right", "both", "none"]
	}
  },
  
  "content": {
    "addClass":"*",
    "removeClass":"*",
    "addFlags":"*",
    "removeFlags":"*",
   "attr":{
	  "test1":"*",
	  "test2":"*",
	  "test3":"*"
	},
    "style":{
	  "height":"*",
	  "width":"*",
	  "margin":"*",
	  "border":"*",
	  "padding":"*",
	  "background":"*",
	  "position":["absolute", "fixed", "relative", "static"],
	  "top":"*",
	  "right":"*",
	  "bottom":"*",
	  "left":"*",
	  "overflow":["visible", "hidden", "scroll", "auto"],
	  "float": ["left", "right", "none"],
	  "clear": ["left", "right", "both", "none"]
	}
  }
}